{
	"kk": {
		"dev_ip": "192.168.0.148",
		"dev_port": 8266,
		"dev_type": "mms",
		"dev_pw": "asdf",
		"init_sync": false,
		"init_run": "4",
		"files": {
			"root": [
				"board.py",
				"boot.py",
				"main.py"
			],
			"lib": [
				"kk.py",
				"mms.py",
				"ads1115.py",
				"wm8960.py",
				"ds3231.py",
				"mp8862.py"
			],
			"dev-scripts": [
				"selftest.py",
				"sol_bat.py"
			],
			"kk": [
				"wifi.secret",
				"board.json",
				"measure.py"
			]
		}
	}
}
